EESchema Schematic File Version 4
EELAYER 29 0
EELAYER END
$Descr A4 11693 8268
encoding utf-8
Sheet 1 1
Title ""
Date ""
Rev ""
Comp ""
Comment1 ""
Comment2 ""
Comment3 ""
Comment4 ""
$EndDescr
$Comp
L MCU_Module:Arduino_UNO_R3 A?
U 1 1 5CB16A3E
P 3450 5450
F 0 "A?" H 3450 6631 50  0000 C CNN
F 1 "Arduino_UNO_R3" H 3450 6540 50  0000 C CNN
F 2 "Module:Arduino_UNO_R3" H 3600 4400 50  0001 L CNN
F 3 "https://www.arduino.cc/en/Main/arduinoBoardUno" H 3250 6500 50  0001 C CNN
	1    3450 5450
	1    0    0    -1  
$EndComp
Wire Wire Line
	3350 6550 3450 6550
Connection ~ 3450 6550
Wire Wire Line
	3450 6550 3550 6550
$Comp
L Device:R R1
U 1 1 5CB18BA9
P 1100 5350
F 0 "R1" H 1170 5396 50  0000 L CNN
F 1 "220" H 1170 5305 50  0000 L CNN
F 2 "" V 1030 5350 50  0001 C CNN
F 3 "~" H 1100 5350 50  0001 C CNN
	1    1100 5350
	1    0    0    -1  
$EndComp
$Comp
L Device:R R2
U 1 1 5CB19C2B
P 1600 5650
F 0 "R2" H 1670 5696 50  0000 L CNN
F 1 "2k" H 1670 5605 50  0000 L CNN
F 2 "" V 1530 5650 50  0001 C CNN
F 3 "~" H 1600 5650 50  0001 C CNN
	1    1600 5650
	1    0    0    -1  
$EndComp
$Comp
L Device:LED D1
U 1 1 5CB19F11
P 1100 5650
F 0 "D1" V 1139 5532 50  0000 R CNN
F 1 "OPB819" V 1048 5532 50  0000 R CNN
F 2 "" H 1100 5650 50  0001 C CNN
F 3 "~" H 1100 5650 50  0001 C CNN
	1    1100 5650
	0    -1   -1   0   
$EndComp
$Comp
L Device:Q_Photo_NPN Q1
U 1 1 5CB1A3C8
P 1500 6000
F 0 "Q1" H 1691 6046 50  0000 L CNN
F 1 "OPB819" H 1691 5955 50  0000 L CNN
F 2 "" H 1700 6100 50  0001 C CNN
F 3 "~" H 1500 6000 50  0001 C CNN
	1    1500 6000
	1    0    0    -1  
$EndComp
$Comp
L power:GND #PWR?
U 1 1 5CB21831
P 3450 6550
F 0 "#PWR?" H 3450 6300 50  0001 C CNN
F 1 "GND" H 3455 6377 50  0000 C CNN
F 2 "" H 3450 6550 50  0001 C CNN
F 3 "" H 3450 6550 50  0001 C CNN
	1    3450 6550
	1    0    0    -1  
$EndComp
$Comp
L power:+5V #PWR?
U 1 1 5CB21BA6
P 1600 4600
F 0 "#PWR?" H 1600 4450 50  0001 C CNN
F 1 "+5V" H 1615 4773 50  0000 C CNN
F 2 "" H 1600 4600 50  0001 C CNN
F 3 "" H 1600 4600 50  0001 C CNN
	1    1600 4600
	1    0    0    -1  
$EndComp
$Comp
L power:GND #PWR?
U 1 1 5CB251FD
P 1100 5800
F 0 "#PWR?" H 1100 5550 50  0001 C CNN
F 1 "GND" H 1105 5627 50  0000 C CNN
F 2 "" H 1100 5800 50  0001 C CNN
F 3 "" H 1100 5800 50  0001 C CNN
	1    1100 5800
	1    0    0    -1  
$EndComp
$Comp
L power:GND #PWR?
U 1 1 5CB254EF
P 1600 6200
F 0 "#PWR?" H 1600 5950 50  0001 C CNN
F 1 "GND" H 1605 6027 50  0000 C CNN
F 2 "" H 1600 6200 50  0001 C CNN
F 3 "" H 1600 6200 50  0001 C CNN
	1    1600 6200
	1    0    0    -1  
$EndComp
$Comp
L power:+3V3 #PWR?
U 1 1 5CB25DF9
P 3550 4200
F 0 "#PWR?" H 3550 4050 50  0001 C CNN
F 1 "+3V3" H 3565 4373 50  0000 C CNN
F 2 "" H 3550 4200 50  0001 C CNN
F 3 "" H 3550 4200 50  0001 C CNN
	1    3550 4200
	1    0    0    -1  
$EndComp
$Comp
L power:+5V #PWR?
U 1 1 5CB25EC7
P 3650 4300
F 0 "#PWR?" H 3650 4150 50  0001 C CNN
F 1 "+5V" H 3665 4473 50  0000 C CNN
F 2 "" H 3650 4300 50  0001 C CNN
F 3 "" H 3650 4300 50  0001 C CNN
	1    3650 4300
	1    0    0    -1  
$EndComp
Wire Wire Line
	3550 4200 3550 4450
Wire Wire Line
	3650 4300 3650 4450
Wire Wire Line
	1600 5800 2300 5800
Wire Wire Line
	2300 5800 2300 5050
Wire Wire Line
	2300 5050 2950 5050
Connection ~ 1600 5800
Wire Wire Line
	1600 4600 1100 4600
Wire Wire Line
	1100 4600 1100 5200
$Comp
L MCU_Module:Arduino_UNO_R3 A?
U 1 1 5CD71986
P 9800 2150
F 0 "A?" H 9800 3331 50  0000 C CNN
F 1 "Arduino_UNO_R3" H 9800 3240 50  0000 C CNN
F 2 "Module:Arduino_UNO_R3" H 9950 1100 50  0001 L CNN
F 3 "https://www.arduino.cc/en/Main/arduinoBoardUno" H 9600 3200 50  0001 C CNN
	1    9800 2150
	1    0    0    -1  
$EndComp
Wire Wire Line
	9700 3250 9800 3250
Connection ~ 9800 3250
Wire Wire Line
	9800 3250 9900 3250
$Comp
L Device:R R?
U 1 1 5CD7198F
P 7450 2050
F 0 "R?" H 7520 2096 50  0000 L CNN
F 1 "220" H 7520 2005 50  0000 L CNN
F 2 "" V 7380 2050 50  0001 C CNN
F 3 "~" H 7450 2050 50  0001 C CNN
	1    7450 2050
	1    0    0    -1  
$EndComp
$Comp
L Device:R R?
U 1 1 5CD71995
P 7950 2350
F 0 "R?" H 8020 2396 50  0000 L CNN
F 1 "2k" H 8020 2305 50  0000 L CNN
F 2 "" V 7880 2350 50  0001 C CNN
F 3 "~" H 7950 2350 50  0001 C CNN
	1    7950 2350
	1    0    0    -1  
$EndComp
$Comp
L Device:LED D?
U 1 1 5CD7199B
P 7450 2350
F 0 "D?" V 7489 2232 50  0000 R CNN
F 1 "OPB819" V 7398 2232 50  0000 R CNN
F 2 "" H 7450 2350 50  0001 C CNN
F 3 "~" H 7450 2350 50  0001 C CNN
	1    7450 2350
	0    -1   -1   0   
$EndComp
$Comp
L Device:Q_Photo_NPN Q?
U 1 1 5CD719A1
P 7850 2700
F 0 "Q?" H 8041 2746 50  0000 L CNN
F 1 "OPB819" H 8041 2655 50  0000 L CNN
F 2 "" H 8050 2800 50  0001 C CNN
F 3 "~" H 7850 2700 50  0001 C CNN
	1    7850 2700
	1    0    0    -1  
$EndComp
$Comp
L power:GND #PWR?
U 1 1 5CD719A7
P 9800 3250
F 0 "#PWR?" H 9800 3000 50  0001 C CNN
F 1 "GND" H 9805 3077 50  0000 C CNN
F 2 "" H 9800 3250 50  0001 C CNN
F 3 "" H 9800 3250 50  0001 C CNN
	1    9800 3250
	1    0    0    -1  
$EndComp
$Comp
L power:+5V #PWR?
U 1 1 5CD719AD
P 7950 1300
F 0 "#PWR?" H 7950 1150 50  0001 C CNN
F 1 "+5V" H 7965 1473 50  0000 C CNN
F 2 "" H 7950 1300 50  0001 C CNN
F 3 "" H 7950 1300 50  0001 C CNN
	1    7950 1300
	1    0    0    -1  
$EndComp
$Comp
L power:GND #PWR?
U 1 1 5CD719C3
P 7450 2500
F 0 "#PWR?" H 7450 2250 50  0001 C CNN
F 1 "GND" H 7455 2327 50  0000 C CNN
F 2 "" H 7450 2500 50  0001 C CNN
F 3 "" H 7450 2500 50  0001 C CNN
	1    7450 2500
	1    0    0    -1  
$EndComp
$Comp
L power:GND #PWR?
U 1 1 5CD719C9
P 7950 2900
F 0 "#PWR?" H 7950 2650 50  0001 C CNN
F 1 "GND" H 7955 2727 50  0000 C CNN
F 2 "" H 7950 2900 50  0001 C CNN
F 3 "" H 7950 2900 50  0001 C CNN
	1    7950 2900
	1    0    0    -1  
$EndComp
$Comp
L power:+3V3 #PWR?
U 1 1 5CD719CF
P 9900 900
F 0 "#PWR?" H 9900 750 50  0001 C CNN
F 1 "+3V3" H 9915 1073 50  0000 C CNN
F 2 "" H 9900 900 50  0001 C CNN
F 3 "" H 9900 900 50  0001 C CNN
	1    9900 900 
	1    0    0    -1  
$EndComp
$Comp
L power:+5V #PWR?
U 1 1 5CD719D5
P 10000 1000
F 0 "#PWR?" H 10000 850 50  0001 C CNN
F 1 "+5V" H 10015 1173 50  0000 C CNN
F 2 "" H 10000 1000 50  0001 C CNN
F 3 "" H 10000 1000 50  0001 C CNN
	1    10000 1000
	1    0    0    -1  
$EndComp
Wire Wire Line
	9900 900  9900 1150
Wire Wire Line
	10000 1000 10000 1150
Wire Wire Line
	7950 2500 8650 2500
Wire Wire Line
	8650 2500 8650 1750
Wire Wire Line
	8650 1750 9300 1750
Connection ~ 7950 2500
Wire Wire Line
	7950 1300 7450 1300
Wire Wire Line
	7450 1300 7450 1900
$Comp
L Device:R R?
U 1 1 5CD7BA0B
P 5850 2100
F 0 "R?" H 5920 2146 50  0000 L CNN
F 1 "220" H 5920 2055 50  0000 L CNN
F 2 "" V 5780 2100 50  0001 C CNN
F 3 "~" H 5850 2100 50  0001 C CNN
	1    5850 2100
	1    0    0    -1  
$EndComp
$Comp
L Device:R R?
U 1 1 5CD7BA11
P 6350 2400
F 0 "R?" H 6420 2446 50  0000 L CNN
F 1 "2k" H 6420 2355 50  0000 L CNN
F 2 "" V 6280 2400 50  0001 C CNN
F 3 "~" H 6350 2400 50  0001 C CNN
	1    6350 2400
	1    0    0    -1  
$EndComp
$Comp
L Device:LED D?
U 1 1 5CD7BA17
P 5850 2400
F 0 "D?" V 5889 2282 50  0000 R CNN
F 1 "OPB819" V 5798 2282 50  0000 R CNN
F 2 "" H 5850 2400 50  0001 C CNN
F 3 "~" H 5850 2400 50  0001 C CNN
	1    5850 2400
	0    -1   -1   0   
$EndComp
$Comp
L Device:Q_Photo_NPN Q?
U 1 1 5CD7BA1D
P 6250 2750
F 0 "Q?" H 6441 2796 50  0000 L CNN
F 1 "OPB819" H 6441 2705 50  0000 L CNN
F 2 "" H 6450 2850 50  0001 C CNN
F 3 "~" H 6250 2750 50  0001 C CNN
	1    6250 2750
	1    0    0    -1  
$EndComp
$Comp
L power:+5V #PWR?
U 1 1 5CD7BA23
P 6350 1350
F 0 "#PWR?" H 6350 1200 50  0001 C CNN
F 1 "+5V" H 6365 1523 50  0000 C CNN
F 2 "" H 6350 1350 50  0001 C CNN
F 3 "" H 6350 1350 50  0001 C CNN
	1    6350 1350
	1    0    0    -1  
$EndComp
$Comp
L power:GND #PWR?
U 1 1 5CD7BA39
P 5850 2550
F 0 "#PWR?" H 5850 2300 50  0001 C CNN
F 1 "GND" H 5855 2377 50  0000 C CNN
F 2 "" H 5850 2550 50  0001 C CNN
F 3 "" H 5850 2550 50  0001 C CNN
	1    5850 2550
	1    0    0    -1  
$EndComp
$Comp
L power:GND #PWR?
U 1 1 5CD7BA3F
P 6350 2950
F 0 "#PWR?" H 6350 2700 50  0001 C CNN
F 1 "GND" H 6355 2777 50  0000 C CNN
F 2 "" H 6350 2950 50  0001 C CNN
F 3 "" H 6350 2950 50  0001 C CNN
	1    6350 2950
	1    0    0    -1  
$EndComp
Wire Wire Line
	6350 2550 7050 2550
Connection ~ 6350 2550
Wire Wire Line
	6350 1350 5850 1350
Wire Wire Line
	5850 1350 5850 1950
$Comp
L Device:R R?
U 1 1 5CD867F7
P 4300 2100
F 0 "R?" H 4370 2146 50  0000 L CNN
F 1 "220" H 4370 2055 50  0000 L CNN
F 2 "" V 4230 2100 50  0001 C CNN
F 3 "~" H 4300 2100 50  0001 C CNN
	1    4300 2100
	1    0    0    -1  
$EndComp
$Comp
L Device:R R?
U 1 1 5CD867FD
P 4800 2400
F 0 "R?" H 4870 2446 50  0000 L CNN
F 1 "2k" H 4870 2355 50  0000 L CNN
F 2 "" V 4730 2400 50  0001 C CNN
F 3 "~" H 4800 2400 50  0001 C CNN
	1    4800 2400
	1    0    0    -1  
$EndComp
$Comp
L Device:LED D?
U 1 1 5CD86803
P 4300 2400
F 0 "D?" V 4339 2282 50  0000 R CNN
F 1 "OPB819" V 4248 2282 50  0000 R CNN
F 2 "" H 4300 2400 50  0001 C CNN
F 3 "~" H 4300 2400 50  0001 C CNN
	1    4300 2400
	0    -1   -1   0   
$EndComp
$Comp
L Device:Q_Photo_NPN Q?
U 1 1 5CD86809
P 4700 2750
F 0 "Q?" H 4891 2796 50  0000 L CNN
F 1 "OPB819" H 4891 2705 50  0000 L CNN
F 2 "" H 4900 2850 50  0001 C CNN
F 3 "~" H 4700 2750 50  0001 C CNN
	1    4700 2750
	1    0    0    -1  
$EndComp
$Comp
L power:+5V #PWR?
U 1 1 5CD8680F
P 4800 1350
F 0 "#PWR?" H 4800 1200 50  0001 C CNN
F 1 "+5V" H 4815 1523 50  0000 C CNN
F 2 "" H 4800 1350 50  0001 C CNN
F 3 "" H 4800 1350 50  0001 C CNN
	1    4800 1350
	1    0    0    -1  
$EndComp
$Comp
L power:GND #PWR?
U 1 1 5CD86825
P 4300 2550
F 0 "#PWR?" H 4300 2300 50  0001 C CNN
F 1 "GND" H 4305 2377 50  0000 C CNN
F 2 "" H 4300 2550 50  0001 C CNN
F 3 "" H 4300 2550 50  0001 C CNN
	1    4300 2550
	1    0    0    -1  
$EndComp
$Comp
L power:GND #PWR?
U 1 1 5CD8682B
P 4800 2950
F 0 "#PWR?" H 4800 2700 50  0001 C CNN
F 1 "GND" H 4805 2777 50  0000 C CNN
F 2 "" H 4800 2950 50  0001 C CNN
F 3 "" H 4800 2950 50  0001 C CNN
	1    4800 2950
	1    0    0    -1  
$EndComp
Wire Wire Line
	4800 1350 4300 1350
Wire Wire Line
	4300 1350 4300 1950
Connection ~ 4800 1350
Wire Wire Line
	5500 2550 5500 3500
Wire Wire Line
	9000 3500 9000 1950
Wire Wire Line
	9000 1950 9300 1950
Wire Wire Line
	7050 2550 7050 3200
Wire Wire Line
	7050 3200 8850 3200
Wire Wire Line
	8850 3200 8850 1850
Wire Wire Line
	8850 1850 9300 1850
Connection ~ 7950 1300
Connection ~ 6350 1350
Wire Wire Line
	4800 1350 4800 2250
Wire Wire Line
	6350 1350 6350 2250
Wire Wire Line
	7950 1300 7950 2200
Wire Wire Line
	5500 3500 9000 3500
Text Notes 6450 2650 0    50   ~ 0
white\n
Text Notes 6450 2900 0    50   ~ 0
green\n
Text Notes 8050 2600 0    50   ~ 0
white\n
Text Notes 4900 2900 0    50   ~ 0
green\n
Text Notes 8050 2850 0    50   ~ 0
green\n
Text Notes 1700 6150 0    50   ~ 0
green\n
Connection ~ 4800 2550
Text Notes 4900 2650 0    50   ~ 0
white\n
Wire Wire Line
	4800 2550 5500 2550
Text Notes 1700 5900 0    50   ~ 0
white\n
Wire Wire Line
	1600 4600 1600 5500
Connection ~ 1600 4600
$EndSCHEMATC
